{
    "defaultSeverity": "error",
    "extends": [
        "tslint:recommended"
    ],
    "jsRules": {},
    "rules": {
        "align": {
          "options": ["parameters", "statements"]
        },
        "array-type": false,
        "arrow-return-shorthand": true,
        "curly": true,
        "deprecation": {
          "severity": "warning"
        },
        "eofline": true,
        "import-blacklist": [true, "rxjs/Rx"],
        "import-spacing": true,
        "indent": {
          "options": ["spaces"]
        },
        "max-classes-per-file": false,
        "no-consecutive-blank-lines": [true, 1],
        "newline-before-return": true,
        "max-line-length": [true, 140],
        "ordered-imports": [
          true,
          {
            "named-imports-order": "case-insensitive-legacy",
            "import-sources-order": "case-insensitive-legacy",
            "grouped-imports": true,
            "groups": [
              {
                "name": "next",
                "match": "^next.*",
                "order": 0
              },
              {
                "name": "react",
                "match": "^react.*",
                "order": 1
              },
              {
                "name": "internal_modules",
                "match": "^@.*",
                "order": 3
              },
              {
                "name": "relative_dir",
                "match": "^[.].*",
                "order": 4
              },
              {
                "name": "node_modules",
                "match": ".*",
                "order": 2
              }
            ],
            "module-source-path": "full"
          }
        ],
        "member-access": [true, "check-constructor", "check-parameter-property"],
        "member-ordering": [
          true,
          {
            "order": [
              "private-instance-field",
              "protected-instance-field",
              "public-instance-field",
              "private-instance-accessor",
              "protected-instance-accessor",
              "public-instance-accessor",
              "constructor",
              "public-instance-method",
              "private-instance-method",
              "protected-instance-method"
            ]
          }
        ],
        "no-console": [true, "debug", "log", "time", "timeEnd", "trace"],
        "no-empty": false,
        "no-inferrable-types": [true, "ignore-params"],
        "no-non-null-assertion": true,
        "no-redundant-jsdoc": true,
        "no-switch-case-fall-through": true,
        "no-var-requires": false,
        "object-literal-key-quotes": [true, "as-needed"],
        "quotemark": [true, "single"],
        "semicolon": {
          "options": ["always"]
        },
        "space-before-function-paren": {
          "options": {
            "anonymous": "never",
            "asyncArrow": "always",
            "constructor": "never",
            "method": "never",
            "named": "never"
          }
        },
        "typedef": [true, "call-signature"],
        "typedef-whitespace": {
          "options": [
            {
              "call-signature": "nospace",
              "index-signature": "nospace",
              "parameter": "nospace",
              "property-declaration": "nospace",
              "variable-declaration": "nospace"
            },
            {
              "call-signature": "onespace",
              "index-signature": "onespace",
              "parameter": "onespace",
              "property-declaration": "onespace",
              "variable-declaration": "onespace"
            }
          ]
        },
        "variable-name": {
          "options": ["allow-leading-underscore", "ban-keywords", "check-format", "allow-pascal-case"]
        },
        "whitespace": {
          "options": ["check-branch", "check-decl", "check-operator", "check-separator", "check-type", "check-typecast"]
        }
    },
    "rulesDirectory": []
}